[
  {
    "ElementId":"1",
    "ElementName":"N",
    "FromUnitId":"1",
    "FromUnitName":"ppm",
    "ToUnitId":"2",
    "ToUnitName":"meq/L",
    "ConversionValue":"0.071"
  },
  {
    "ElementId":"1",
    "ElementName":"N",
    "FromUnitId":"1",
    "FromUnitName":"ppm",
    "ToUnitId":"3",
    "ToUnitName":"mmol/L",
    "ConversionValue":"0.071"
  },
  {
    "ElementId":"1",
    "ElementName":"N",
    "FromUnitId":"1",
    "FromUnitName":"ppm",
    "ToUnitId":"4",
    "ToUnitName":"meq/100g",
    "ConversionValue":"0.0071"
  },
  {
    "ElementId":"8",
    "ElementName":"P",
    "FromUnitId":"1",
    "FromUnitName":"ppm",
    "ToUnitId":"2",
    "ToUnitName":"meq/L",
    "ConversionValue":"0.032"
  },
  {
    "ElementId":"8",
    "ElementName":"P",
    "FromUnitId":"1",
    "FromUnitName":"ppm",
    "ToUnitId":"3",
    "ToUnitName":"mmol/L",
    "ConversionValue":"0.032"
  },
  {
    "ElementId":"8",
    "ElementName":"P",
    "FromUnitId":"1",
    "FromUnitName":"ppm",
    "ToUnitId":"4",
    "ToUnitName":"meq/100g",
    "ConversionValue":"0.0032"
  },
  {
    "ElementId":"12",
    "ElementName":"K",
    "FromUnitId":"1",
    "FromUnitName":"ppm",
    "ToUnitId":"2",
    "ToUnitName":"meq/L",
    "ConversionValue":"0.026"
  },
  {
    "ElementId":"12",
    "ElementName":"K",
    "FromUnitId":"1",
    "FromUnitName":"ppm",
    "ToUnitId":"3",
    "ToUnitName":"mmol/L",
    "ConversionValue":"0.013"
  },
  {
    "ElementId":"12",
    "ElementName":"K",
    "FromUnitId":"1",
    "FromUnitName":"ppm",
    "ToUnitId":"4",
    "ToUnitName":"meq/100g",
    "ConversionValue":"0.0026"
  },
  {
    "ElementId":"14",
    "ElementName":"Ca",
    "FromUnitId":"1",
    "FromUnitName":"ppm",
    "ToUnitId":"2",
    "ToUnitName":"meq/L",
    "ConversionValue":"0.05"
  },
  {
    "ElementId":"14",
    "ElementName":"Ca",
    "FromUnitId":"1",
    "FromUnitName":"ppm",
    "ToUnitId":"3",
    "ToUnitName":"mmol/L",
    "ConversionValue":"0.025"
  },
  {
    "ElementId":"14",
    "ElementName":"Ca",
    "FromUnitId":"1",
    "FromUnitName":"ppm",
    "ToUnitId":"4",
    "ToUnitName":"meq/100g",
    "ConversionValue":"0.005"
  },
  {
    "ElementId":"17",
    "ElementName":"Mg",
    "FromUnitId":"1",
    "FromUnitName":"ppm",
    "ToUnitId":"2",
    "ToUnitName":"meq/L",
    "ConversionValue":"0.083"
  },
  {
    "ElementId":"17",
    "ElementName":"Mg",
    "FromUnitId":"1",
    "FromUnitName":"ppm",
    "ToUnitId":"3",
    "ToUnitName":"mmol/L",
    "ConversionValue":"0.041"
  },
  {
    "ElementId":"17",
    "ElementName":"Mg",
    "FromUnitId":"1",
    "FromUnitName":"ppm",
    "ToUnitId":"4",
    "ToUnitName":"meq/100g",
    "ConversionValue":"0.0083"
  },
  {
    "ElementId":"19",
    "ElementName":"S",
    "FromUnitId":"1",
    "FromUnitName":"ppm",
    "ToUnitId":"2",
    "ToUnitName":"meq/L",
    "ConversionValue":"0.063"
  },
  {
    "ElementId":"19",
    "ElementName":"S",
    "FromUnitId":"1",
    "FromUnitName":"ppm",
    "ToUnitId":"3",
    "ToUnitName":"mmol/L",
    "ConversionValue":"0.031"
  },
  {
    "ElementId":"19",
    "ElementName":"S",
    "FromUnitId":"1",
    "FromUnitName":"ppm",
    "ToUnitId":"4",
    "ToUnitName":"meq/100g",
    "ConversionValue":"0.0063"
  }
]